^C:\PROJECTS\XULY\AURAGENERATOR\AURAGENERATOR\X64\RELEASE\GLEW.OBJ
/OUT:"C:\PROJECTS\XULY\AURAGENERATOR\X64\RELEASE\AURAGENERATOR.DLL" /INCREMENTAL:NO /NOLOGO OPENGL32.LIB KERNEL32.LIB USER32.LIB GDI32.LIB WINSPOOL.LIB COMDLG32.LIB ADVAPI32.LIB SHELL32.LIB OLE32.LIB OLEAUT32.LIB UUID.LIB ODBC32.LIB ODBCCP32.LIB /MANIFEST /MANIFESTUAC:"level='asInvoker' uiAccess='false'" /manifest:embed /DEBUG /PDB:"C:\PROJECTS\XULY\AURAGENERATOR\X64\RELEASE\AURAGENERATOR.PDB" /SUBSYSTEM:WINDOWS /OPT:REF /OPT:ICF /LTCG:incremental /TLBID:1 /DYNAMICBASE /NXCOMPAT /IMPLIB:"C:\PROJECTS\XULY\AURAGENERATOR\X64\RELEASE\AURAGENERATOR.LIB" /MACHINE:X64 /DLL X64\RELEASE\GLEW.OBJ
^C:\PROJECTS\XULY\AURAGENERATOR\AURAGENERATOR\X64\RELEASE\AURAGENERATOR.OBJ|C:\PROJECTS\XULY\AURAGENERATOR\AURAGENERATOR\X64\RELEASE\GLEW.OBJ
/OUT:"C:\PROJECTS\XULY\AURAGENERATOR\X64\RELEASE\AURAGENERATOR.DLL" /INCREMENTAL:NO /NOLOGO OPENGL32.LIB KERNEL32.LIB USER32.LIB GDI32.LIB WINSPOOL.LIB COMDLG32.LIB ADVAPI32.LIB SHELL32.LIB OLE32.LIB OLEAUT32.LIB UUID.LIB ODBC32.LIB ODBCCP32.LIB /MANIFEST /MANIFESTUAC:"level='asInvoker' uiAccess='false'" /manifest:embed /DEBUG /PDB:"C:\PROJECTS\XULY\AURAGENERATOR\X64\RELEASE\AURAGENERATOR.PDB" /SUBSYSTEM:WINDOWS /OPT:REF /OPT:ICF /LTCG:incremental /TLBID:1 /DYNAMICBASE /NXCOMPAT /IMPLIB:"C:\PROJECTS\XULY\AURAGENERATOR\X64\RELEASE\AURAGENERATOR.LIB" /MACHINE:X64 /DLL X64\RELEASE\GLEW.OBJX64\RELEASE\AURAGENERATOR.OBJ
^C:\USERS\USERUSER\DESKTOP\XULY\AURAGENERATOR\AURAGENERATOR\X64\RELEASE\AURAGENERATOR.OBJ|C:\USERS\USERUSER\DESKTOP\XULY\AURAGENERATOR\AURAGENERATOR\X64\RELEASE\GLEW.OBJ
/OUT:"C:\USERS\USERUSER\DESKTOP\XULY\AURAGENERATOR\X64\RELEASE\AURAGENERATOR.DLL" /INCREMENTAL:NO /NOLOGO OPENGL32.LIB KERNEL32.LIB USER32.LIB GDI32.LIB WINSPOOL.LIB COMDLG32.LIB ADVAPI32.LIB SHELL32.LIB OLE32.LIB OLEAUT32.LIB UUID.LIB ODBC32.LIB ODBCCP32.LIB /MANIFEST /MANIFESTUAC:"level='asInvoker' uiAccess='false'" /manifest:embed /DEBUG /PDB:"C:\USERS\USERUSER\DESKTOP\XULY\AURAGENERATOR\X64\RELEASE\AURAGENERATOR.PDB" /SUBSYSTEM:WINDOWS /OPT:REF /OPT:ICF /LTCG:incremental /TLBID:1 /DYNAMICBASE /NXCOMPAT /IMPLIB:"C:\USERS\USERUSER\DESKTOP\XULY\AURAGENERATOR\X64\RELEASE\AURAGENERATOR.LIB" /MACHINE:X64 /DLL X64\RELEASE\GLEW.OBJX64\RELEASE\AURAGENERATOR.OBJ
